EESchema Schematic File Version 4
EELAYER 30 0
EELAYER END
$Descr A4 11693 8268
encoding utf-8
Sheet 2 2
Title "Rocket Launch Controller"
Date ""
Rev ""
Comp "Stuart Patterson"
Comment1 ""
Comment2 ""
Comment3 ""
Comment4 ""
$EndDescr
$Comp
L Switch:SW_SPST SW?
U 1 1 6108EFEF
P 1850 5750
AR Path="/6108EFEF" Ref="SW?"  Part="1" 
AR Path="/6105AEEC/6108EFEF" Ref="SW1"  Part="1" 
F 0 "SW1" H 1850 5985 50  0000 C CNN
F 1 "SW_ROCKET_1" H 1850 5894 50  0000 C CNN
F 2 "" H 1850 5750 50  0001 C CNN
F 3 "~" H 1850 5750 50  0001 C CNN
	1    1850 5750
	-1   0    0    1   
$EndComp
$Comp
L Switch:SW_SPST SW?
U 1 1 6108EFF5
P 3300 5750
AR Path="/6108EFF5" Ref="SW?"  Part="1" 
AR Path="/6105AEEC/6108EFF5" Ref="SW2"  Part="1" 
F 0 "SW2" H 3300 5985 50  0000 C CNN
F 1 "SW_ROCKET_2" H 3300 5894 50  0000 C CNN
F 2 "" H 3300 5750 50  0001 C CNN
F 3 "~" H 3300 5750 50  0001 C CNN
	1    3300 5750
	-1   0    0    1   
$EndComp
$Comp
L Device:LED D?
U 1 1 6108EFFB
P 9350 3250
AR Path="/6108EFFB" Ref="D?"  Part="1" 
AR Path="/6105AEEC/6108EFFB" Ref="D5"  Part="1" 
F 0 "D5" H 9343 2995 50  0000 C CNN
F 1 "CONTINUITY_LED_ROCKET_1" H 9700 3150 50  0000 C CNN
F 2 "" H 9350 3250 50  0001 C CNN
F 3 "~" H 9350 3250 50  0001 C CNN
	1    9350 3250
	-1   0    0    1   
$EndComp
$Comp
L Device:LED D?
U 1 1 6108F001
P 3200 4400
AR Path="/6108F001" Ref="D?"  Part="1" 
AR Path="/6105AEEC/6108F001" Ref="D6"  Part="1" 
F 0 "D6" H 2900 4500 50  0000 R CNN
F 1 "PWR LED" H 3250 4500 50  0000 R CNN
F 2 "" H 3200 4400 50  0001 C CNN
F 3 "~" H 3200 4400 50  0001 C CNN
	1    3200 4400
	1    0    0    -1  
$EndComp
$Comp
L Connector:Conn_01x02_Female J?
U 1 1 6108F007
P 9700 3250
AR Path="/6108F007" Ref="J?"  Part="1" 
AR Path="/6105AEEC/6108F007" Ref="J33"  Part="1" 
F 0 "J33" H 9728 3226 50  0000 L CNN
F 1 "CONTINUITY_ROCKET1_LED" H 9728 3135 50  0000 L CNN
F 2 "" H 9700 3250 50  0001 C CNN
F 3 "~" H 9700 3250 50  0001 C CNN
	1    9700 3250
	1    0    0    -1  
$EndComp
Wire Wire Line
	9200 3250 9200 3350
Wire Wire Line
	9200 3350 9500 3350
$Comp
L Connector:Conn_01x02_Female J?
U 1 1 6108F019
P 1800 5450
AR Path="/6108F019" Ref="J?"  Part="1" 
AR Path="/6105AEEC/6108F019" Ref="J25"  Part="1" 
F 0 "J25" V 1828 5426 50  0000 L CNN
F 1 "ROCKET1_SWITCH" V 1900 4950 50  0000 L CNN
F 2 "" H 1800 5450 50  0001 C CNN
F 3 "~" H 1800 5450 50  0001 C CNN
	1    1800 5450
	0    -1   -1   0   
$EndComp
Wire Wire Line
	1650 5750 1650 5650
Wire Wire Line
	1650 5650 1800 5650
Wire Wire Line
	1900 5650 2050 5650
Wire Wire Line
	2050 5650 2050 5750
$Comp
L Connector:Conn_01x02_Female J?
U 1 1 6108F023
P 3250 5450
AR Path="/6108F023" Ref="J?"  Part="1" 
AR Path="/6105AEEC/6108F023" Ref="J27"  Part="1" 
F 0 "J27" V 3278 5426 50  0000 L CNN
F 1 "ROCKET2_SWITCH" V 3350 4950 50  0000 L CNN
F 2 "" H 3250 5450 50  0001 C CNN
F 3 "~" H 3250 5450 50  0001 C CNN
	1    3250 5450
	0    -1   -1   0   
$EndComp
Wire Wire Line
	3100 5750 3100 5650
Wire Wire Line
	3100 5650 3250 5650
Wire Wire Line
	3350 5650 3500 5650
Wire Wire Line
	3500 5650 3500 5750
$Comp
L Connector:Conn_01x02_Female J?
U 1 1 6108F02D
P 3550 4400
AR Path="/6108F02D" Ref="J?"  Part="1" 
AR Path="/6105AEEC/6108F02D" Ref="J35"  Part="1" 
F 0 "J35" V 3578 4376 50  0000 L CNN
F 1 "POWER_LED_F" H 3250 4200 50  0000 L CNN
F 2 "" H 3550 4400 50  0001 C CNN
F 3 "~" H 3550 4400 50  0001 C CNN
	1    3550 4400
	1    0    0    -1  
$EndComp
Wire Wire Line
	3350 4500 3050 4500
Wire Wire Line
	3050 4500 3050 4400
$Comp
L Device:Battery_Cell BT?
U 1 1 61097E87
P 2500 1850
AR Path="/61097E87" Ref="BT?"  Part="1" 
AR Path="/6105AEEC/61097E87" Ref="BT1"  Part="1" 
F 0 "BT1" H 2618 1946 50  0000 L CNN
F 1 "3.7V 18650" H 2618 1855 50  0000 L CNN
F 2 "" V 2500 1910 50  0001 C CNN
F 3 "~" V 2500 1910 50  0001 C CNN
	1    2500 1850
	0    1    1    0   
$EndComp
$Comp
L Device:Battery_Cell BT?
U 1 1 61097E8D
P 2100 1850
AR Path="/61097E8D" Ref="BT?"  Part="1" 
AR Path="/6105AEEC/61097E8D" Ref="BT2"  Part="1" 
F 0 "BT2" H 2218 1946 50  0000 L CNN
F 1 "3.7V 18650" H 2218 1855 50  0000 L CNN
F 2 "" V 2100 1910 50  0001 C CNN
F 3 "~" V 2100 1910 50  0001 C CNN
	1    2100 1850
	0    1    1    0   
$EndComp
Wire Wire Line
	1200 1850 1150 1850
$Comp
L Device:Battery_Cell BT?
U 1 1 61097EAE
P 1700 1850
AR Path="/61097EAE" Ref="BT?"  Part="1" 
AR Path="/6105AEEC/61097EAE" Ref="BT3"  Part="1" 
F 0 "BT3" H 1818 1946 50  0000 L CNN
F 1 "3.7V 18650" H 1818 1855 50  0000 L CNN
F 2 "" V 1700 1910 50  0001 C CNN
F 3 "~" V 1700 1910 50  0001 C CNN
	1    1700 1850
	0    1    1    0   
$EndComp
$Comp
L Device:Battery_Cell BT?
U 1 1 61097EB4
P 1300 1850
AR Path="/61097EB4" Ref="BT?"  Part="1" 
AR Path="/6105AEEC/61097EB4" Ref="BT4"  Part="1" 
F 0 "BT4" H 1418 1946 50  0000 L CNN
F 1 "3.7V 18650" H 1418 1855 50  0000 L CNN
F 2 "" V 1300 1910 50  0001 C CNN
F 3 "~" V 1300 1910 50  0001 C CNN
	1    1300 1850
	0    1    1    0   
$EndComp
$Comp
L Device:LED D?
U 1 1 611C4EBD
P 1200 4050
AR Path="/611C4EBD" Ref="D?"  Part="1" 
AR Path="/6105AEEC/611C4EBD" Ref="D2"  Part="1" 
F 0 "D2" H 1200 4250 50  0000 C CNN
F 1 "READY1_CLR LED" H 1150 4150 50  0000 C CNN
F 2 "" H 1200 4050 50  0001 C CNN
F 3 "~" H 1200 4050 50  0001 C CNN
	1    1200 4050
	-1   0    0    1   
$EndComp
$Comp
L Device:LED D?
U 1 1 611C4EC3
P 1200 4800
AR Path="/611C4EC3" Ref="D?"  Part="1" 
AR Path="/6105AEEC/611C4EC3" Ref="D3"  Part="1" 
F 0 "D3" H 1200 5000 50  0000 C CNN
F 1 "READY2_CLR LED" H 1200 4900 50  0000 C CNN
F 2 "" H 1200 4800 50  0001 C CNN
F 3 "~" H 1200 4800 50  0001 C CNN
	1    1200 4800
	-1   0    0    1   
$EndComp
$Comp
L Device:LED D?
U 1 1 611C4EC9
P 1950 4400
AR Path="/611C4EC9" Ref="D?"  Part="1" 
AR Path="/6105AEEC/611C4EC9" Ref="D4"  Part="1" 
F 0 "D4" H 1950 4650 50  0000 C CNN
F 1 "READY3_CLR LED" H 1950 4550 50  0000 C CNN
F 2 "" H 1950 4400 50  0001 C CNN
F 3 "~" H 1950 4400 50  0001 C CNN
	1    1950 4400
	-1   0    0    1   
$EndComp
$Comp
L Device:LED D?
U 1 1 611C4ECF
P 9300 3800
AR Path="/611C4ECF" Ref="D?"  Part="1" 
AR Path="/6105AEEC/611C4ECF" Ref="D7"  Part="1" 
F 0 "D7" H 9300 3700 50  0000 C CNN
F 1 "CONTINUITY_LED_ROCKET_2" H 9100 3600 50  0000 C CNN
F 2 "" H 9300 3800 50  0001 C CNN
F 3 "~" H 9300 3800 50  0001 C CNN
	1    9300 3800
	-1   0    0    1   
$EndComp
$Comp
L Device:Speaker LS?
U 1 1 611C4ED5
P 6250 4350
AR Path="/611C4ED5" Ref="LS?"  Part="1" 
AR Path="/6105AEEC/611C4ED5" Ref="LS1"  Part="1" 
F 0 "LS1" H 6150 4050 50  0000 C CNN
F 1 "Speaker" H 6150 4150 50  0000 C CNN
F 2 "" H 6250 4150 50  0001 C CNN
F 3 "~" H 6240 4300 50  0001 C CNN
	1    6250 4350
	0    1    1    0   
$EndComp
$Comp
L Device:LED D?
U 1 1 611C4EDB
P 9700 1500
AR Path="/611C4EDB" Ref="D?"  Part="1" 
AR Path="/6105AEEC/611C4EDB" Ref="D9"  Part="1" 
F 0 "D9" H 9693 1245 50  0000 C CNN
F 1 "LAUNCH_SAFETY_BUTTON_LED" V 9600 850 50  0000 C CNN
F 2 "" H 9700 1500 50  0001 C CNN
F 3 "~" H 9700 1500 50  0001 C CNN
	1    9700 1500
	0    -1   -1   0   
$EndComp
$Comp
L Switch:SW_Push SW?
U 1 1 611C4EE1
P 9950 1000
AR Path="/611C4EE1" Ref="SW?"  Part="1" 
AR Path="/6105AEEC/611C4EE1" Ref="SW7"  Part="1" 
F 0 "SW7" H 9950 1285 50  0000 C CNN
F 1 "SW_LAUNCH" H 9950 1194 50  0000 C CNN
F 2 "" H 9950 1200 50  0001 C CNN
F 3 "~" H 9950 1200 50  0001 C CNN
	1    9950 1000
	0    1    1    0   
$EndComp
$Comp
L Connector:Conn_01x04_Female J?
U 1 1 611C4EE7
P 9200 1200
AR Path="/611C4EE7" Ref="J?"  Part="1" 
AR Path="/6105AEEC/611C4EE7" Ref="J36"  Part="1" 
F 0 "J36" H 9150 800 50  0000 C CNN
F 1 "SAFETY_BTN_LED" H 9100 900 50  0000 C CNN
F 2 "" H 9200 1200 50  0001 C CNN
F 3 "~" H 9200 1200 50  0001 C CNN
	1    9200 1200
	-1   0    0    1   
$EndComp
Wire Wire Line
	9400 1300 9400 1650
Wire Wire Line
	9400 1650 9700 1650
Wire Wire Line
	9400 1200 9700 1200
Wire Wire Line
	9700 1200 9700 1350
Wire Wire Line
	9400 1000 9800 1000
Wire Wire Line
	9800 1000 9800 800 
Wire Wire Line
	9800 800  9950 800 
Wire Wire Line
	9400 1100 9800 1100
Wire Wire Line
	9800 1100 9800 1200
Wire Wire Line
	9800 1200 9950 1200
$Comp
L Connector:Conn_01x02_Female J?
U 1 1 611C4EF7
P 9650 3800
AR Path="/611C4EF7" Ref="J?"  Part="1" 
AR Path="/6105AEEC/611C4EF7" Ref="J38"  Part="1" 
F 0 "J38" H 9678 3776 50  0000 L CNN
F 1 "CONTINUITY_ROCKET2_LED" H 9678 3685 50  0000 L CNN
F 2 "" H 9650 3800 50  0001 C CNN
F 3 "~" H 9650 3800 50  0001 C CNN
	1    9650 3800
	1    0    0    -1  
$EndComp
Wire Wire Line
	9150 3800 9150 3900
Wire Wire Line
	9150 3900 9450 3900
$Comp
L Connector:Conn_01x02_Female J?
U 1 1 611C4EFF
P 1150 4500
AR Path="/611C4EFF" Ref="J?"  Part="1" 
AR Path="/6105AEEC/611C4EFF" Ref="J23"  Part="1" 
F 0 "J23" V 1178 4476 50  0000 L CNN
F 1 "READY2_LED" V 1250 4100 50  0000 L CNN
F 2 "" H 1150 4500 50  0001 C CNN
F 3 "~" H 1150 4500 50  0001 C CNN
	1    1150 4500
	0    -1   -1   0   
$EndComp
$Comp
L Connector:Conn_01x02_Female J?
U 1 1 611C4F05
P 1150 3750
AR Path="/611C4F05" Ref="J?"  Part="1" 
AR Path="/6105AEEC/611C4F05" Ref="J22"  Part="1" 
F 0 "J22" V 1178 3726 50  0000 L CNN
F 1 "READY1_LED" V 1250 3350 50  0000 L CNN
F 2 "" H 1150 3750 50  0001 C CNN
F 3 "~" H 1150 3750 50  0001 C CNN
	1    1150 3750
	0    -1   -1   0   
$EndComp
Wire Wire Line
	1050 3950 1150 3950
Wire Wire Line
	1250 3950 1350 3950
Wire Wire Line
	1150 4700 1050 4700
Wire Wire Line
	1050 4700 1050 4800
Wire Wire Line
	1250 4700 1350 4700
Wire Wire Line
	1350 4700 1350 4800
Wire Wire Line
	1050 3950 1050 4050
Wire Wire Line
	1350 3950 1350 4050
$Comp
L Connector:Conn_01x02_Female J?
U 1 1 611C4F13
P 1900 4100
AR Path="/611C4F13" Ref="J?"  Part="1" 
AR Path="/6105AEEC/611C4F13" Ref="J26"  Part="1" 
F 0 "J26" V 1928 4076 50  0000 L CNN
F 1 "READY3_LED" V 2000 3700 50  0000 L CNN
F 2 "" H 1900 4100 50  0001 C CNN
F 3 "~" H 1900 4100 50  0001 C CNN
	1    1900 4100
	0    -1   -1   0   
$EndComp
Wire Wire Line
	1900 4300 1800 4300
Wire Wire Line
	1800 4300 1800 4400
Wire Wire Line
	2000 4300 2100 4300
Wire Wire Line
	2100 4300 2100 4400
$Comp
L Connector:Conn_01x02_Female J?
U 1 1 611C4F1D
P 6150 3950
AR Path="/611C4F1D" Ref="J?"  Part="1" 
AR Path="/6105AEEC/611C4F1D" Ref="J39"  Part="1" 
F 0 "J39" V 6178 3926 50  0000 L CNN
F 1 "SPEAKER" V 6300 3750 50  0000 L CNN
F 2 "" H 6150 3950 50  0001 C CNN
F 3 "~" H 6150 3950 50  0001 C CNN
	1    6150 3950
	0    -1   -1   0   
$EndComp
Wire Wire Line
	9900 2500 10050 2500
Wire Wire Line
	9900 2350 9900 2500
Wire Wire Line
	9600 2350 9900 2350
Wire Wire Line
	9900 2100 10050 2100
Wire Wire Line
	9900 2250 9900 2100
Wire Wire Line
	9600 2250 9900 2250
Wire Wire Line
	9600 2750 9750 2750
Wire Wire Line
	9600 2550 9600 2750
Wire Wire Line
	9600 2450 9750 2450
$Comp
L Connector:Conn_01x04_Female J?
U 1 1 611C4F2C
P 9400 2450
AR Path="/611C4F2C" Ref="J?"  Part="1" 
AR Path="/6105AEEC/611C4F2C" Ref="J37"  Part="1" 
F 0 "J37" H 9500 2000 50  0000 C CNN
F 1 "LAUNCH_BTN_LED" H 9450 2100 50  0000 C CNN
F 2 "" H 9400 2450 50  0001 C CNN
F 3 "~" H 9400 2450 50  0001 C CNN
	1    9400 2450
	-1   0    0    1   
$EndComp
$Comp
L Switch:SW_Push SW?
U 1 1 611C4F32
P 10050 2300
AR Path="/611C4F32" Ref="SW?"  Part="1" 
AR Path="/6105AEEC/611C4F32" Ref="SW6"  Part="1" 
F 0 "SW6" H 10050 2585 50  0000 C CNN
F 1 "SW_LAUNCH" H 10050 2494 50  0000 C CNN
F 2 "" H 10050 2500 50  0001 C CNN
F 3 "~" H 10050 2500 50  0001 C CNN
	1    10050 2300
	0    1    1    0   
$EndComp
$Comp
L Device:LED D?
U 1 1 611C4F38
P 9750 2600
AR Path="/611C4F38" Ref="D?"  Part="1" 
AR Path="/6105AEEC/611C4F38" Ref="D8"  Part="1" 
F 0 "D8" H 9743 2345 50  0000 C CNN
F 1 "LAUNCH_BUTTON_LED" V 9600 2050 50  0000 C CNN
F 2 "" H 9750 2600 50  0001 C CNN
F 3 "~" H 9750 2600 50  0001 C CNN
	1    9750 2600
	0    -1   -1   0   
$EndComp
$Comp
L Switch:SW_Push SW?
U 1 1 611D86A7
P 4700 3650
AR Path="/611D86A7" Ref="SW?"  Part="1" 
AR Path="/6105AEEC/611D86A7" Ref="SW3"  Part="1" 
F 0 "SW3" H 4700 3935 50  0000 C CNN
F 1 "SW_READY1_CLR" H 4700 3844 50  0000 C CNN
F 2 "" H 4700 3850 50  0001 C CNN
F 3 "~" H 4700 3850 50  0001 C CNN
	1    4700 3650
	1    0    0    -1  
$EndComp
$Comp
L Switch:SW_Push SW?
U 1 1 611D86AD
P 4750 4600
AR Path="/611D86AD" Ref="SW?"  Part="1" 
AR Path="/6105AEEC/611D86AD" Ref="SW4"  Part="1" 
F 0 "SW4" H 4750 4885 50  0000 C CNN
F 1 "SW_READY2_CLR" H 4750 4794 50  0000 C CNN
F 2 "" H 4750 4800 50  0001 C CNN
F 3 "~" H 4750 4800 50  0001 C CNN
	1    4750 4600
	1    0    0    -1  
$EndComp
$Comp
L Switch:SW_Push SW?
U 1 1 611D86B3
P 4750 5650
AR Path="/611D86B3" Ref="SW?"  Part="1" 
AR Path="/6105AEEC/611D86B3" Ref="SW5"  Part="1" 
F 0 "SW5" H 4750 5935 50  0000 C CNN
F 1 "SW_READY3_CLR" H 4750 5844 50  0000 C CNN
F 2 "" H 4750 5850 50  0001 C CNN
F 3 "~" H 4750 5850 50  0001 C CNN
	1    4750 5650
	1    0    0    -1  
$EndComp
$Comp
L Connector:Conn_01x02_Female J?
U 1 1 611D86B9
P 4800 5950
AR Path="/611D86B9" Ref="J?"  Part="1" 
AR Path="/6105AEEC/611D86B9" Ref="J31"  Part="1" 
F 0 "J31" V 4828 5926 50  0000 L CNN
F 1 "READY3_PB" V 4900 5550 50  0000 L CNN
F 2 "" H 4800 5950 50  0001 C CNN
F 3 "~" H 4800 5950 50  0001 C CNN
	1    4800 5950
	0    1    1    0   
$EndComp
Wire Wire Line
	4800 5750 4950 5750
Wire Wire Line
	4950 5750 4950 5650
Wire Wire Line
	4700 5750 4550 5750
Wire Wire Line
	4550 5750 4550 5650
$Comp
L Connector:Conn_01x02_Female J?
U 1 1 611D86C3
P 4800 4900
AR Path="/611D86C3" Ref="J?"  Part="1" 
AR Path="/6105AEEC/611D86C3" Ref="J30"  Part="1" 
F 0 "J30" V 4828 4876 50  0000 L CNN
F 1 "READY2_PB" V 4900 4500 50  0000 L CNN
F 2 "" H 4800 4900 50  0001 C CNN
F 3 "~" H 4800 4900 50  0001 C CNN
	1    4800 4900
	0    1    1    0   
$EndComp
Wire Wire Line
	4550 4600 4550 4700
Wire Wire Line
	4550 4700 4700 4700
Wire Wire Line
	4800 4700 4950 4700
Wire Wire Line
	4950 4700 4950 4600
$Comp
L Connector:Conn_01x02_Female J?
U 1 1 611D86CD
P 4750 3950
AR Path="/611D86CD" Ref="J?"  Part="1" 
AR Path="/6105AEEC/611D86CD" Ref="J29"  Part="1" 
F 0 "J29" V 4778 3926 50  0000 L CNN
F 1 "READY2_PB" V 4850 3550 50  0000 L CNN
F 2 "" H 4750 3950 50  0001 C CNN
F 3 "~" H 4750 3950 50  0001 C CNN
	1    4750 3950
	0    1    1    0   
$EndComp
Wire Wire Line
	4500 3650 4500 3750
Wire Wire Line
	4500 3750 4650 3750
Wire Wire Line
	4750 3750 4900 3750
Wire Wire Line
	4900 3750 4900 3650
$Comp
L Device:R_POT RV?
U 1 1 61260B23
P 6100 3350
AR Path="/61260B23" Ref="RV?"  Part="1" 
AR Path="/6105AEEC/61260B23" Ref="RV1"  Part="1" 
F 0 "RV1" H 6030 3396 50  0000 R CNN
F 1 "10k" H 6030 3305 50  0000 R CNN
F 2 "" H 6100 3350 50  0001 C CNN
F 3 "~" H 6100 3350 50  0001 C CNN
	1    6100 3350
	1    0    0    -1  
$EndComp
Text Notes 5950 3150 0    50   ~ 0
Audio Taper
$Comp
L Connector:Conn_01x03_Female J?
U 1 1 61260B2A
P 6450 3350
AR Path="/61260B2A" Ref="J?"  Part="1" 
AR Path="/6105AEEC/61260B2A" Ref="J34"  Part="1" 
F 0 "J34" H 6478 3376 50  0000 L CNN
F 1 "VOLUME" H 6478 3285 50  0000 L CNN
F 2 "" H 6450 3350 50  0001 C CNN
F 3 "~" H 6450 3350 50  0001 C CNN
	1    6450 3350
	1    0    0    -1  
$EndComp
Wire Wire Line
	6100 3200 6250 3200
Wire Wire Line
	6250 3200 6250 3250
Wire Wire Line
	6100 3500 6250 3500
Wire Wire Line
	6250 3500 6250 3450
Wire Wire Line
	2400 1850 2300 1850
Wire Wire Line
	2000 1850 1900 1850
Wire Wire Line
	1600 1850 1500 1850
$Comp
L Mechanical:MountingHole_Pad H3
U 1 1 608E9AE0
P 3650 1750
F 0 "H3" H 3600 2050 50  0000 L CNN
F 1 "4_18650_OUT+" H 3400 1950 50  0000 L CNN
F 2 "MountingHole:MountingHole_3.2mm_M3_DIN965_Pad" H 3650 1750 50  0001 C CNN
F 3 "~" H 3650 1750 50  0001 C CNN
	1    3650 1750
	0    1    1    0   
$EndComp
$Comp
L Device:Battery_Cell BT?
U 1 1 608EDC21
P 2750 850
AR Path="/608EDC21" Ref="BT?"  Part="1" 
AR Path="/6105AEEC/608EDC21" Ref="BT5"  Part="1" 
F 0 "BT5" H 2868 946 50  0000 L CNN
F 1 "3.7V 18650" H 2868 855 50  0000 L CNN
F 2 "" V 2750 910 50  0001 C CNN
F 3 "~" V 2750 910 50  0001 C CNN
	1    2750 850 
	0    1    1    0   
$EndComp
$Comp
L Device:Battery_Cell BT?
U 1 1 608EDC27
P 2350 850
AR Path="/608EDC27" Ref="BT?"  Part="1" 
AR Path="/6105AEEC/608EDC27" Ref="BT6"  Part="1" 
F 0 "BT6" H 2468 946 50  0000 L CNN
F 1 "3.7V 18650" H 2468 855 50  0000 L CNN
F 2 "" V 2350 910 50  0001 C CNN
F 3 "~" V 2350 910 50  0001 C CNN
	1    2350 850 
	0    1    1    0   
$EndComp
Wire Wire Line
	2650 850  2550 850 
Wire Wire Line
	2250 850  2150 850 
$Comp
L Mechanical:MountingHole_Pad H5
U 1 1 608EDC35
P 3650 1000
F 0 "H5" H 3600 1300 50  0000 L CNN
F 1 "2_18650_OUT+" H 3400 1200 50  0000 L CNN
F 2 "MountingHole:MountingHole_3.2mm_M3_DIN965_Pad" H 3650 1000 50  0001 C CNN
F 3 "~" H 3650 1000 50  0001 C CNN
	1    3650 1000
	0    1    1    0   
$EndComp
$Comp
L Mechanical:MountingHole_Pad H4
U 1 1 608F1592
P 1050 1850
F 0 "H4" H 1000 2150 50  0000 L CNN
F 1 "4_18650_OUT-" H 800 2050 50  0000 L CNN
F 2 "MountingHole:MountingHole_3.2mm_M3_DIN965_Pad" H 1050 1850 50  0001 C CNN
F 3 "~" H 1050 1850 50  0001 C CNN
	1    1050 1850
	0    -1   -1   0   
$EndComp
$Comp
L Mechanical:MountingHole_Pad H6
U 1 1 608F23EA
P 2050 850
F 0 "H6" H 2000 1150 50  0000 L CNN
F 1 "2_18650_OUT-" H 1800 1050 50  0000 L CNN
F 2 "MountingHole:MountingHole_3.2mm_M3_DIN965_Pad" H 2050 850 50  0001 C CNN
F 3 "~" H 2050 850 50  0001 C CNN
	1    2050 850 
	0    -1   -1   0   
$EndComp
$Comp
L Device:Fuse F1
U 1 1 60AB5FBE
P 2850 1850
F 0 "F1" H 2910 1896 50  0000 L CNN
F 1 "Fuse - SloBlow 3.0A" H 2910 1805 50  0000 L CNN
F 2 "" V 2780 1850 50  0001 C CNN
F 3 "~" H 2850 1850 50  0001 C CNN
	1    2850 1850
	0    1    1    0   
$EndComp
$Comp
L Mechanical:MountingHole_Pad H7
U 1 1 60AC239B
P 6700 5000
F 0 "H7" H 6650 5300 50  0000 L CNN
F 1 "RCA_ROCKET1_PIN1" H 6450 5200 50  0000 L CNN
F 2 "MountingHole:MountingHole_3.2mm_M3_DIN965_Pad" H 6700 5000 50  0001 C CNN
F 3 "~" H 6700 5000 50  0001 C CNN
	1    6700 5000
	-1   0    0    1   
$EndComp
$Comp
L Mechanical:MountingHole_Pad H15
U 1 1 60ACD0AF
P 7550 5000
F 0 "H15" H 7500 5300 50  0000 L CNN
F 1 "RCA_ROCKET1_PIN2" H 7300 5200 50  0000 L CNN
F 2 "MountingHole:MountingHole_3.2mm_M3_DIN965_Pad" H 7550 5000 50  0001 C CNN
F 3 "~" H 7550 5000 50  0001 C CNN
	1    7550 5000
	-1   0    0    1   
$EndComp
$Comp
L Mechanical:MountingHole_Pad H10
U 1 1 60ACD3EB
P 6700 6000
F 0 "H10" H 6650 6300 50  0000 L CNN
F 1 "RCA_ROCKET2_PIN1" H 6450 6200 50  0000 L CNN
F 2 "MountingHole:MountingHole_3.2mm_M3_DIN965_Pad" H 6700 6000 50  0001 C CNN
F 3 "~" H 6700 6000 50  0001 C CNN
	1    6700 6000
	-1   0    0    1   
$EndComp
$Comp
L Mechanical:MountingHole_Pad H16
U 1 1 60ACD7C3
P 7550 6000
F 0 "H16" H 7500 6300 50  0000 L CNN
F 1 "RCA_ROCKET2_PIN2" H 7300 6200 50  0000 L CNN
F 2 "MountingHole:MountingHole_3.2mm_M3_DIN965_Pad" H 7550 6000 50  0001 C CNN
F 3 "~" H 7550 6000 50  0001 C CNN
	1    7550 6000
	-1   0    0    1   
$EndComp
$Comp
L Device:R R28
U 1 1 60ACE082
P 6700 5750
F 0 "R28" H 6770 5796 50  0000 L CNN
F 1 "6 Ohm 50W" H 6770 5705 50  0000 L CNN
F 2 "" V 6630 5750 50  0001 C CNN
F 3 "~" H 6700 5750 50  0001 C CNN
	1    6700 5750
	1    0    0    -1  
$EndComp
$Comp
L Device:R R27
U 1 1 60ACE51E
P 6700 4750
F 0 "R27" H 6770 4796 50  0000 L CNN
F 1 "6 Ohm 50W" H 6770 4705 50  0000 L CNN
F 2 "" V 6630 4750 50  0001 C CNN
F 3 "~" H 6700 4750 50  0001 C CNN
	1    6700 4750
	1    0    0    -1  
$EndComp
Wire Wire Line
	7550 4900 7550 4750
Wire Wire Line
	7550 4550 7800 4550
Wire Wire Line
	6700 5600 6700 5400
Wire Wire Line
	6700 5400 7150 5400
Wire Wire Line
	7550 5900 7550 5700
Wire Wire Line
	7550 5500 7800 5500
Text Label 7800 4450 0    50   ~ 0
ROCKET_1_CLIP_PIN1
Text Label 7800 4550 0    50   ~ 0
ROCKET_1_CLIP_PIN2
Text Label 7800 5400 0    50   ~ 0
ROCKET_2_CLIP_PIN1
Text Label 7800 5500 0    50   ~ 0
ROCKET_2_CLIP_PIN2
Wire Wire Line
	6700 4600 6700 4450
Wire Wire Line
	6700 4450 7150 4450
$Comp
L power:PWR_FLAG #FLG0104
U 1 1 60ADE7F2
P 7150 4450
F 0 "#FLG0104" H 7150 4525 50  0001 C CNN
F 1 "PWR_FLAG" H 7150 4623 50  0000 C CNN
F 2 "" H 7150 4450 50  0001 C CNN
F 3 "~" H 7150 4450 50  0001 C CNN
	1    7150 4450
	1    0    0    -1  
$EndComp
Connection ~ 7150 4450
Wire Wire Line
	7150 4450 7800 4450
$Comp
L power:PWR_FLAG #FLG0105
U 1 1 60ADEC02
P 7150 5400
F 0 "#FLG0105" H 7150 5475 50  0001 C CNN
F 1 "PWR_FLAG" H 7150 5573 50  0000 C CNN
F 2 "" H 7150 5400 50  0001 C CNN
F 3 "~" H 7150 5400 50  0001 C CNN
	1    7150 5400
	-1   0    0    1   
$EndComp
Connection ~ 7150 5400
Wire Wire Line
	7150 5400 7800 5400
$Comp
L power:PWR_FLAG #FLG0106
U 1 1 60ADF86B
P 7550 4750
F 0 "#FLG0106" H 7550 4825 50  0001 C CNN
F 1 "PWR_FLAG" V 7550 4878 50  0000 L CNN
F 2 "" H 7550 4750 50  0001 C CNN
F 3 "~" H 7550 4750 50  0001 C CNN
	1    7550 4750
	0    1    1    0   
$EndComp
Connection ~ 7550 4750
Wire Wire Line
	7550 4750 7550 4550
$Comp
L power:PWR_FLAG #FLG0107
U 1 1 60ADFFB8
P 7550 5700
F 0 "#FLG0107" H 7550 5775 50  0001 C CNN
F 1 "PWR_FLAG" V 7550 5828 50  0000 L CNN
F 2 "" H 7550 5700 50  0001 C CNN
F 3 "~" H 7550 5700 50  0001 C CNN
	1    7550 5700
	0    1    1    0   
$EndComp
Connection ~ 7550 5700
Wire Wire Line
	7550 5700 7550 5500
Text Notes 8450 5100 0    50   ~ 0
Adding a current sensor or warning system\n to indicate that the high current (14.8v) relay \nhas not switched back to the non-launch \npostition would be a good safety additon \nto the design.
Wire Wire Line
	2950 850  3000 850 
Wire Wire Line
	3000 850  3000 1300
Wire Wire Line
	3000 1500 3000 1850
Wire Wire Line
	3400 1300 3400 1000
Wire Wire Line
	3400 1000 3550 1000
Wire Wire Line
	3400 1500 3400 1750
Wire Wire Line
	3400 1750 3550 1750
$Comp
L Switch:SW_DPST SW8
U 1 1 60AC8277
P 3200 1400
F 0 "SW8" H 3200 1725 50  0000 C CNN
F 1 "POWER_SW_DPST" H 3200 1634 50  0000 C CNN
F 2 "" H 3200 1400 50  0001 C CNN
F 3 "~" H 3200 1400 50  0001 C CNN
	1    3200 1400
	1    0    0    -1  
$EndComp
$EndSCHEMATC
